[
  {
    "name": "Origin Festival",
    "bands": [
      {
        "name": "Silver String Band",
        "recordLabel": "Silver Sold Label"
      },
       {
        "name": "Silver Garden Band",
        "recordLabel": "Silver Sold Label"
      },
      {
        "name": "Spring Gold Band",
        "recordLabel": "Gold Solo Label"
      },
      {
        "name": "Silver Trio Band",
        "recordLabel": "Silver Sold Label"
      }

    ]
  },
  {
    "name": "Life Festival",
    "bands": [
      {
        "name": "Gold String Band",
        "recordLabel": "Gold Solo Label"
      },
       {
        "name": "Silver Garden Band",
        "recordLabel": "Silver Sold Label"
      },
      {
        "name": "Flowing Gold Band",
        "recordLabel": "Gold Solo Label"
      },
      {
        "name": "Silver Trio Band",
        "recordLabel": "Gold Solo Label"
      }

    ]
  },
  {
    "name": "Spring Festival",
    "bands": [
      {
        "name": "Gold String Band",
        "recordLabel": "Gold Solo Label"
      },
       {
        "name": "Silver Garden Band",
        "recordLabel": "Silver Sold Label"
      },
      {
        "name": "Spring Gold Band",
        "recordLabel": "Gold Solo Label"
      },
      {
        "name": "Silver Trio Band",
        "recordLabel": "Gold Solo Label"
      }

    ]
  }

]